<?xml version="1.0" encoding="UTF-8" standalone="no"?>
<!DOCTYPE svg PUBLIC "-//W3C//DTD SVG 1.1//EN"
 "http://www.w3.org/Graphics/SVG/1.1/DTD/svg11.dtd">
<!-- Generated by graphviz version 5.0.0 (20220707.1540)
 -->
<!-- Title: dependencies Pages: 1 -->
<svg width="261pt" height="174pt"
 viewBox="0.00 0.00 261.00 173.80" xmlns="http://www.w3.org/2000/svg" xmlns:xlink="http://www.w3.org/1999/xlink">
<g id="graph0" class="graph" transform="scale(1 1) rotate(0) translate(4 169.8)">
<title>dependencies</title>
<polygon fill="white" stroke="transparent" points="-4,4 -4,-169.8 257,-169.8 257,4 -4,4"/>
<text text-anchor="middle" x="126.5" y="-8.2" font-family="sans-serif" font-size="14.00">dependencies</text>
<g id="clust1" class="cluster">
<title>cluster_AppModule</title>
<polygon fill="none" stroke="black" stroke-dasharray="1,5" points="8,-32.8 8,-157.8 245,-157.8 245,-32.8 8,-32.8"/>
</g>
<g id="clust3" class="cluster">
<title>cluster_AppModule_imports</title>
<polygon fill="none" stroke="black" points="16,-40.8 16,-92.8 237,-92.8 237,-40.8 16,-40.8"/>
</g>
<!-- DatabaseModule -->
<g id="node1" class="node">
<title>DatabaseModule</title>
<polygon fill="#8dd3c7" stroke="black" points="229.36,-84.8 226.36,-88.8 205.36,-88.8 202.36,-84.8 118.64,-84.8 118.64,-48.8 229.36,-48.8 229.36,-84.8"/>
<text text-anchor="middle" x="174" y="-62.6" font-family="Times,serif" font-size="14.00">DatabaseModule</text>
</g>
<!-- AppModule -->
<g id="node3" class="node">
<title>AppModule</title>
<polygon fill="#8dd3c7" stroke="black" points="159.66,-149.8 156.66,-153.8 135.66,-153.8 132.66,-149.8 76.34,-149.8 76.34,-113.8 159.66,-113.8 159.66,-149.8"/>
<text text-anchor="middle" x="118" y="-127.6" font-family="Times,serif" font-size="14.00">AppModule</text>
</g>
<!-- DatabaseModule&#45;&gt;AppModule -->
<g id="edge1" class="edge">
<title>DatabaseModule&#45;&gt;AppModule</title>
<path fill="none" stroke="black" d="M139.2,-84.91C139.2,-84.91 139.2,-103.79 139.2,-103.79"/>
<polygon fill="black" stroke="black" points="135.7,-103.79 139.2,-113.79 142.7,-103.79 135.7,-103.79"/>
</g>
<!-- V0Module -->
<g id="node2" class="node">
<title>V0Module</title>
<polygon fill="#8dd3c7" stroke="black" points="100.16,-84.8 97.16,-88.8 76.16,-88.8 73.16,-84.8 23.84,-84.8 23.84,-48.8 100.16,-48.8 100.16,-84.8"/>
<text text-anchor="middle" x="62" y="-62.6" font-family="Times,serif" font-size="14.00">V0Module</text>
</g>
<!-- V0Module&#45;&gt;AppModule -->
<g id="edge2" class="edge">
<title>V0Module&#45;&gt;AppModule</title>
<path fill="none" stroke="black" d="M88.25,-84.91C88.25,-84.91 88.25,-103.79 88.25,-103.79"/>
<polygon fill="black" stroke="black" points="84.75,-103.79 88.25,-113.79 91.75,-103.79 84.75,-103.79"/>
</g>
</g>
</svg>
